\relax 
\@writefile{toc}{\contentsline {section}{\numberline {1}Introduction}{1}}
\@writefile{toc}{\contentsline {section}{\numberline {2}Section A Questions}{1}}
\@writefile{toc}{\contentsline {section}{\numberline {3}Section B Questions}{1}}
\@writefile{toc}{\contentsline {section}{\numberline {4}Section C Questions}{1}}
