\relax 
\@writefile{toc}{\contentsline {section}{\numberline {1}Introduction}{1}}
\@writefile{toc}{\contentsline {section}{\numberline {2}Single Answer Questions}{1}}
\@writefile{toc}{\contentsline {section}{\numberline {3}Proof Questions}{1}}
