\relax 
\@writefile{toc}{\contentsline {section}{\numberline {1}Introduction}{1}}
\@writefile{toc}{\contentsline {section}{\numberline {2}Multiple Choice Questions}{1}}
\@writefile{toc}{\contentsline {section}{\numberline {3}Single Answer Questions}{1}}
\@writefile{toc}{\contentsline {section}{\numberline {4}Proof Questions}{1}}
