\relax 
\providecommand\hyper@newdestlabel[2]{}
\providecommand\HyperFirstAtBeginDocument{\AtBeginDocument}
\HyperFirstAtBeginDocument{\ifx\hyper@anchor\@undefined
\global\let\oldcontentsline\contentsline
\gdef\contentsline#1#2#3#4{\oldcontentsline{#1}{#2}{#3}}
\global\let\oldnewlabel\newlabel
\gdef\newlabel#1#2{\newlabelxx{#1}#2}
\gdef\newlabelxx#1#2#3#4#5#6{\oldnewlabel{#1}{{#2}{#3}}}
\AtEndDocument{\ifx\hyper@anchor\@undefined
\let\contentsline\oldcontentsline
\let\newlabel\oldnewlabel
\fi}
\fi}
\global\let\hyper@last\relax 
\gdef\HyperFirstAtBeginDocument#1{#1}
\providecommand\HyField@AuxAddToFields[1]{}
\providecommand\HyField@AuxAddToCoFields[2]{}
\@writefile{toc}{\contentsline {section}{\numberline {1}Introduction}{1}{section.1}}
\@writefile{toc}{\contentsline {section}{\numberline {2}Multiple Choice Questions}{1}{section.2}}
\@writefile{toc}{\contentsline {subsection}{\numberline {2.1}A1}{1}{subsection.2.1}}
\@writefile{toc}{\contentsline {subsection}{\numberline {2.2}A2}{1}{subsection.2.2}}
\@writefile{toc}{\contentsline {subsection}{\numberline {2.3}A3}{1}{subsection.2.3}}
\@writefile{toc}{\contentsline {subsection}{\numberline {2.4}A4}{1}{subsection.2.4}}
\@writefile{toc}{\contentsline {subsection}{\numberline {2.5}A5}{1}{subsection.2.5}}
\@writefile{toc}{\contentsline {subsection}{\numberline {2.6}A6}{1}{subsection.2.6}}
\@writefile{toc}{\contentsline {subsection}{\numberline {2.7}A7}{2}{subsection.2.7}}
\@writefile{toc}{\contentsline {subsection}{\numberline {2.8}A8}{2}{subsection.2.8}}
\@writefile{toc}{\contentsline {subsection}{\numberline {2.9}A9}{2}{subsection.2.9}}
\@writefile{toc}{\contentsline {subsection}{\numberline {2.10}A10}{2}{subsection.2.10}}
\@writefile{toc}{\contentsline {section}{\numberline {3}Single Answer Questions}{2}{section.3}}
\@writefile{toc}{\contentsline {section}{\numberline {4}Proof Questions}{2}{section.4}}
